EDI_LCC_20160316
TableName	Actflag	Created	Changed	LccID	SecID	ISIN	ExchgCD	EffectiveDate	OldLocalCode	NewLocalCode	EventType	RelEventID
LCC	I	2016/03/16	2016/03/16	294963	2067661	US459745GA75	USTRCE	2016/03/15	AIG.GYC	AER3684434	CORR	
LCC	I	2016/03/16	2016/03/16	294964	2067621	US459745GC32	USTRCE	2016/03/15	AIG.GYE	AER3684435	CORR	
LCC	I	2016/03/16	2016/03/16	294965	2068379	US459745GE97	USTRCE	2016/03/15	AIG.GYG	AER3684436	CORR	
LCC	I	2016/03/16	2016/03/16	294966	2249385	US459745GF62	USTRCE	2016/03/15	AIG.PMF	AER3687522	CORR	
LCC	I	2016/03/16	2016/03/16	294967	2604054	US459745GG46	USTRCE	2016/03/15	AIG.JCZ	AER3691353	CORR	
LCC	I	2016/03/16	2016/03/16	294968	2708322	US459745GH29	USTRCE	2016/03/15	AIG.ICF	AER3692017	CORR	
LCC	I	2016/03/16	2016/03/16	294969	2708232	US459745GJ84	USTRCE	2016/03/15	AIG.ICG	AER3692024	CORR	
LCC	I	2016/03/16	2016/03/16	294970	3385444	US459745GK57	USTRCE	2016/03/15	AIG.GYH	AER3700674	CORR	
LCC	I	2016/03/16	2016/03/16	294971	2351357	USU45974AP43	USTRCE	2016/03/15	AIG.ICD	AER3766134	CORR	
LCC	I	2016/03/16	2016/03/16	294972	2120997	USU45974AR09	USTRCE	2016/03/15	AIG.GYD	AER3766136	CORR	
LCC	I	2016/03/16	2016/03/16	294973	2067669	USU45974AS81	USTRCE	2016/03/15	AIG.GYF	AER3766137	CORR	
LCC	I	2016/03/16	2016/03/16	294974	3640792	US459745GL31	USTRCE	2016/03/15	AIG3831568	AER3831568	CORR	
LCC	I	2016/03/16	2016/03/16	294975	3887819	US459745GN96	USTRCE	2016/03/15	AIG3890850	AER3890850	CORR	
LCC	I	2016/03/16	2016/03/16	294976	3995727	US459745GQ28	USTRCE	2016/03/15	AIG3979059	AER3979059	CORR	
LCC	I	2016/03/16	2016/03/16	294977	3995714	US459745GP45	USTRCE	2016/03/15	AIG3979060	AER3979060	CORR	
LCC	I	2016/03/16	2016/03/16	294978	4042299	US459745GR01	USTRCE	2016/03/15	AIG4008992	AER4008992	CORR	
LCC	I	2016/03/16	2016/03/16	294981	4724197	US574599BK14	USNYSE	2016/03/17		MAS21	CORR	
LCC	I	2016/03/16	2016/03/16	294982	4083885	US459745FT75	USTRCE	2016/03/15	AIG.GMB	AER3737558	CORR	
LCC	I	2016/03/16	2016/03/16	294983	4108883	US459745FU49	USTRCE	2016/03/15	AIG.GMC	AER3737559	CORR	
LCC	I	2016/03/16	2016/03/16	295028	4722081	USC88660FF47	GBLSE	2016/03/15		17NC	CORR	
LCC	I	2016/03/16	2016/03/16	295030	4721056	US8911457V09	GBLSE	2016/03/15		17IS	CORR	
EDI_ENDOFFILE
