EDI_LSTAT_20160316
TableName	Actflag	Created	Changed	LstatID	SecID	ISIN	ExchgCD	NotificationDate	EffectiveDate	LStatStatus	EventType	Reason
LSTAT	I	2016/03/16	2016/03/16	5177835	972154	US59018YWU18	USOTC	2016/01/25	2016/02/25	D	REDEM	Final Redemption of the Security.
LSTAT	I	2016/03/16	2016/03/16	5177836	972154	US59018YWU18	USTRCE	2016/01/25	2016/02/25	D	REDEM	Final Redemption of the Security.
LSTAT	I	2015/04/20	2015/04/20	4928343	2459068	USG24524AF02	DEFSX	2015/03/02	2015/03/30	D	REDEM	Final Redemption of the Security.
LSTAT	I	2015/04/20	2015/04/20	4928344	2459068	USG24524AF02	SGSSE	2015/03/02	2015/03/30	D	REDEM	Final Redemption of the Security.
LSTAT	I	2015/04/20	2015/04/20	4928345	2459068	USG24524AF02	USTRCE	2015/03/02	2015/03/30	D	REDEM	Final Redemption of the Security.
LSTAT	I	2016/03/16	2016/03/16	5177870	3564665	US3133EAFB99	USTRCE	2016/01/25	2016/02/25	D	REDEM	Final Redemption of the Security.
LSTAT	I	2016/03/16	2016/03/16	5177963	3831303	US3136G0KN02	USTRCE	2016/02/12	2016/02/25	D	REDEM	Final Redemption of the Security.
LSTAT	I	2016/03/16	2016/03/16	5177965	3831585	US3136G0LK53	USTRCE	2016/02/12	2016/02/25	D	REDEM	Final Redemption of the Security.
LSTAT	I	2016/03/16	2016/03/16	5177962	3831604	US3136G0JG79	USTRCE	2016/02/12	2016/02/25	D	REDEM	Final Redemption of the Security.
LSTAT	I	2016/03/16	2016/03/16	5177981	3858790	US313379VA45	USTRCE	2016/02/17	2016/02/25	D	REDEM	Final Redemption of the Security.
LSTAT	I	2016/03/16	2016/03/16	5177968	3883723	US3133EAK564	USTRCE	2016/02/16	2016/02/25	D	REDEM	Final Redemption of the Security.
LSTAT	I	2016/03/16	2016/03/16	5178521	3909981	USU70501AA65	USOTC	2016/03/15	2013/08/12	D	CONV	Final Redemption-Conversion of the security.
LSTAT	I	2016/03/16	2016/03/16	5178522	3909981	USU70501AA65	USTRCE	2016/03/15	2013/08/12	D	CONV	Final Redemption-Conversion of the security.
LSTAT	I	2016/03/16	2016/03/16	5178515	3909989	US69327RAA95	USOTC	2016/03/15	2013/08/12	D	CONV	Final Redemption-Conversion of the security.
LSTAT	I	2016/03/16	2016/03/16	5178516	3909989	US69327RAA95	USTRCE	2016/03/15	2013/08/12	D	CONV	Final Redemption-Conversion of the security.
LSTAT	I	2016/03/16	2016/03/16	5177883	3951479	US3133ECAW48	USTRCE	2016/01/25	2016/02/25	D	REDEM	Final Redemption of the Security.
LSTAT	I	2016/03/16	2016/03/16	5178511	4106339	USU65204AB23	USOTC	2016/03/15	2014/08/15	D	CONV	Final Redemption-Conversion of the security.
LSTAT	I	2016/03/16	2016/03/16	5178512	4106339	USU65204AB23	USTRCE	2016/03/15	2014/08/15	D	CONV	Final Redemption-Conversion of the security.
LSTAT	I	2016/03/16	2016/03/16	5178507	4107126	US674215AF55	USOTC	2016/03/15	2014/08/15	D	CONV	Final Redemption-Conversion of the security.
LSTAT	I	2016/03/16	2016/03/16	5178508	4107126	US674215AF55	USTRCE	2016/03/15	2014/08/15	D	CONV	Final Redemption-Conversion of the security.
LSTAT	I	2016/03/16	2016/03/16	5177894	4114608	US06738JZG20	USOTC	2016/01/25	2016/02/25	D	REDEM	Final Redemption of the Security.
LSTAT	I	2016/03/16	2016/03/16	5177895	4114608	US06738JZG20	USTRCE	2016/01/25	2016/02/25	D	REDEM	Final Redemption of the Security.
LSTAT	I	2016/03/16	2016/03/16	5178530	4117663	USU65249BA87	USOTC	2016/03/15	2014/01/17	D	CONV	Final Redemption-Conversion of the security.
LSTAT	I	2016/03/16	2016/03/16	5178531	4117663	USU65249BA87	USTRCE	2016/03/15	2014/01/17	D	CONV	Final Redemption-Conversion of the security.
LSTAT	I	2016/03/16	2016/03/16	5178527	4117667	US652482CL24	USOTC	2016/03/15	2014/01/17	D	CONV	Final Redemption-Conversion of the security.
LSTAT	I	2016/03/16	2016/03/16	5178528	4117667	US652482CL24	USTRCE	2016/03/15	2014/01/17	D	CONV	Final Redemption-Conversion of the security.
LSTAT	I	2016/03/16	2016/03/16	5177907	4333185	US25152RPD97	USTRCE	2016/01/25	2016/02/25	D	REDEM	Final Redemption of the Security.
LSTAT	I	2016/03/16	2016/03/16	5177851	2074380	XS0536564981	SGSSE	2016/01/25	2016/02/25	D	REDEM	Final Redemption of the Security.
LSTAT	I	2016/03/16	2016/03/16	5177852	2074380	XS0536564981	USTRCE	2016/01/25	2016/02/25	D	REDEM	Final Redemption of the Security.
LSTAT	I	2016/03/16	2016/03/16	5177964	4381160	US3136G2AP26	USTRCE	2016/02/12	2016/02/25	D	REDEM	Final Redemption of the Security.
LSTAT	I	2016/03/16	2016/03/16	5177908	4381820	US40433BTR95	USTRCE	2016/01/25	2016/02/25	D	REDEM	Final Redemption of the Security.
LSTAT	I	2016/03/16	2016/03/16	5177909	4381824	US40433BTS78	USTRCE	2016/01/25	2016/02/25	D	REDEM	Final Redemption of the Security.
LSTAT	I	2016/03/16	2016/03/16	5177910	4381825	US40433BTT51	USTRCE	2016/01/25	2016/02/25	D	REDEM	Final Redemption of the Security.
LSTAT	I	2016/03/16	2016/03/16	5177911	4401550	US38148K5956	USTRCE	2016/01/25	2016/02/25	D	REDEM	Final Redemption of the Security.
LSTAT	I	2016/03/16	2016/03/16	5177982	4433316	US3134G6BN28	USTRCE	2016/02/17	2016/02/25	D	REDEM	Final Redemption of the Security.
LSTAT	I	2016/03/16	2016/03/16	5177983	4437963	US3134G6DC45	USTRCE	2016/02/17	2016/02/25	D	REDEM	Final Redemption of the Security.
LSTAT	I	2016/03/16	2016/03/16	5177984	4439960	US3134G6DV26	USTRCE	2016/02/17	2016/02/25	D	REDEM	Final Redemption of the Security.
LSTAT	I	2016/03/16	2016/03/16	5177912	4441027	US48125UBT88	USTRCE	2016/01/25	2016/02/25	D	REDEM	Final Redemption of the Security.
LSTAT	I	2016/03/16	2016/03/16	5177913	4441033	US83368WD652	USTRCE	2016/01/25	2016/02/25	D	REDEM	Final Redemption of the Security.
LSTAT	I	2016/03/16	2016/03/16	5177914	4441047	US83368WD819	USTRCE	2016/01/25	2016/02/25	D	REDEM	Final Redemption of the Security.
LSTAT	I	2016/03/16	2016/03/16	5177960	4442332	US3136G2EV57	USTRCE	2016/02/12	2016/02/25	D	REDEM	Final Redemption of the Security.
LSTAT	I	2016/03/16	2016/03/16	5177915	4442365	US05579TBA34	USTRCE	2016/01/25	2016/02/25	D	REDEM	Final Redemption of the Security.
LSTAT	I	2016/03/16	2016/03/16	5177916	4442382	US22546V4Q66	USTRCE	2016/01/25	2016/02/25	D	REDEM	Final Redemption of the Security.
LSTAT	I	2016/03/16	2016/03/16	5177969	4442413	US3130A46K33	USTRCE	2016/02/17	2016/02/25	D	REDEM	Final Redemption of the Security.
LSTAT	I	2016/03/16	2016/03/16	5177985	4443949	US3134G6FD00	USTRCE	2016/02/17	2016/02/25	D	REDEM	Final Redemption of the Security.
LSTAT	I	2016/03/16	2016/03/16	5177986	4443973	US3134G6FM09	USTRCE	2016/02/17	2016/02/25	D	REDEM	Final Redemption of the Security.
LSTAT	I	2016/03/16	2016/03/16	5177918	4444012	US25152RUN15	USTRCE	2016/01/25	2016/02/25	D	REDEM	Final Redemption of the Security.
LSTAT	I	2016/03/16	2016/03/16	5177970	4443948	US3130A4AE23	USTRCE	2016/02/17	2016/02/25	D	REDEM	Final Redemption of the Security.
LSTAT	I	2016/03/16	2016/03/16	5177919	4444232	US06741UQR85	USTRCE	2016/01/25	2016/02/25	D	REDEM	Final Redemption of the Security.
LSTAT	I	2016/03/16	2016/03/16	5177971	4450118	US3130A4F312	USTRCE	2016/02/17	2016/02/25	D	REDEM	Final Redemption of the Security.
LSTAT	I	2016/03/16	2016/03/16	5177920	4453099	US61532XBB10	USTRCE	2016/01/25	2016/02/25	D	REDEM	Final Redemption of the Security.
LSTAT	I	2016/03/16	2016/03/16	5177961	4502215	US3136G2JS73	USTRCE	2016/02/12	2016/02/25	D	REDEM	Final Redemption of the Security.
LSTAT	I	2016/03/16	2016/03/16	5177987	4566611	US3134G7PQ85	USTRCE	2016/02/17	2016/02/25	D	REDEM	Final Redemption of the Security.
LSTAT	I	2016/03/16	2016/03/16	5177972	4567672	US3130A64Q75	USTRCE	2016/02/17	2016/02/25	D	REDEM	Final Redemption of the Security.
LSTAT	I	2016/03/16	2016/03/16	5177988	4571427	US3134G7QE47	USTRCE	2016/02/17	2016/02/25	D	REDEM	Final Redemption of the Security.
LSTAT	I	2016/03/16	2016/03/16	5177989	4571443	US3134G7QP93	USTRCE	2016/02/17	2016/02/25	D	REDEM	Final Redemption of the Security.
LSTAT	I	2016/03/16	2016/03/16	5177990	4577042	US3134G7RP84	USTRCE	2016/02/17	2016/02/25	D	REDEM	Final Redemption of the Security.
LSTAT	I	2016/03/16	2016/03/16	5177966	4581320	US3136G2LE59	USTRCE	2016/02/12	2016/02/25	D	REDEM	Final Redemption of the Security.
LSTAT	I	2016/03/16	2016/03/16	5177973	4582160	US3130A6CJ40	USTRCE	2016/02/17	2016/02/25	D	REDEM	Final Redemption of the Security.
LSTAT	I	2016/03/16	2016/03/16	5177991	4582991	US3134G7SU60	USTRCE	2016/02/17	2016/02/25	D	REDEM	Final Redemption of the Security.
LSTAT	I	2016/03/16	2016/03/16	5177992	4583916	US3134G7TP66	USTRCE	2016/02/17	2016/02/25	D	REDEM	Final Redemption of the Security.
LSTAT	I	2016/03/16	2016/03/16	5177939	4591676	US61532XBD75	USTRCE	2016/01/25	2016/02/25	D	REDEM	Final Redemption of the Security.
LSTAT	I	2016/03/16	2016/03/16	5177974	4600133	US3130A6FT94	USTRCE	2016/02/17	2016/02/25	D	REDEM	Final Redemption of the Security.
LSTAT	I	2016/03/16	2016/03/16	5177975	4622640	US3130A6ML85	USTRCE	2016/02/17	2016/02/25	D	REDEM	Final Redemption of the Security.
LSTAT	I	2016/03/16	2016/03/16	5177995	4639384	US3134G84Q97	USTRCE	2016/02/17	2016/02/25	D	REDEM	Final Redemption of the Security.
LSTAT	I	2016/03/16	2016/03/16	5177993	4635794	US3134G82M02	USTRCE	2016/02/17	2016/02/25	D	REDEM	Final Redemption of the Security.
LSTAT	I	2016/03/16	2016/03/16	5177976	4637626	US3130A6QZ36	USTRCE	2016/02/17	2016/02/25	D	REDEM	Final Redemption of the Security.
LSTAT	I	2016/03/16	2016/03/16	5177994	4638526	US3134G84H98	USTRCE	2016/02/17	2016/02/25	D	REDEM	Final Redemption of the Security.
LSTAT	I	2016/03/16	2016/03/16	5177996	4639932	US3134G85D75	USTRCE	2016/02/17	2016/02/25	D	REDEM	Final Redemption of the Security.
LSTAT	I	2016/03/16	2016/03/16	5177997	4640053	US3134G85L91	USTRCE	2016/02/17	2016/02/25	D	REDEM	Final Redemption of the Security.
LSTAT	I	2016/03/16	2016/03/16	5177978	4640512	US3130A6RT66	USTRCE	2016/02/17	2016/02/25	D	REDEM	Final Redemption of the Security.
LSTAT	I	2016/03/16	2016/03/16	5177979	4640514	US3130A6RU30	USTRCE	2016/02/17	2016/02/25	D	REDEM	Final Redemption of the Security.
LSTAT	I	2016/03/16	2016/03/16	5177977	4640506	US3130A6RR01	USTRCE	2016/02/17	2016/02/25	D	REDEM	Final Redemption of the Security.
LSTAT	I	2016/03/16	2016/03/16	5177998	4641379	US3134G85U90	USTRCE	2016/02/17	2016/02/25	D	REDEM	Final Redemption of the Security.
LSTAT	I	2016/03/16	2016/03/16	5177980	4641963	US3130A6S401	USTRCE	2016/02/17	2016/02/25	D	REDEM	Final Redemption of the Security.
LSTAT	I	2016/03/16	2016/03/16	5177999	4644228	US3134G86U81	USTRCE	2016/02/17	2016/02/25	D	REDEM	Final Redemption of the Security.
LSTAT	I	2016/03/16	2016/03/16	5178000	4647310	US3134G87G88	USTRCE	2016/02/17	2016/02/25	D	REDEM	Final Redemption of the Security.
LSTAT	I	2016/03/16	2016/03/16	5178002	4649721	US3134G8BB46	USTRCE	2016/02/17	2016/02/25	D	REDEM	Final Redemption of the Security.
LSTAT	I	2016/03/16	2016/03/16	5178001	4650656	US3134G8B577	USTRCE	2016/02/17	2016/02/25	D	REDEM	Final Redemption of the Security.
LSTAT	I	2016/03/16	2016/03/16	5177949	4651917	US61532XBE58	USTRCE	2016/01/25	2016/02/25	D	REDEM	Final Redemption of the Security.
LSTAT	I	2016/03/16	2016/03/16	5178019	4723952	US85254J4094	USOTC	2016/03/15	2016/03/15	D	PRCHG	(As on 15/03/2016) USFINRA<BR>Date Event Type Eff/Ex Date Symbol Issue Name Market<BR>03/15/2016 01:35:19 Market Center Change Listed on NYSE 03/15/2016 01:35:19 STDDP Stag Indl Inc Cum Red Pfd Ser C% Other OTC<BR>Comments<BR>Prdct chng OTCE-OTCE>CTS-NYSE<BR>Details<BR> Current Value<BR>Daily List Date 03/15/2016 01:35:19<BR>Event Type Market Center Change Listed on NYSE<BR>Effective/Ex Date 03/15/2016 01:35:19<BR>Symbol STDDP<BR>Issue Name Stag Indl Inc Cum Red Pfd Ser C%<BR>Class C<BR>Market Category Other OTC<BR>Offering Type No Restrictions<BR>Daily List Comment Prdct chng OTCE-OTCE>CTS-NYSE<BR><BR>
EDI_ENDOFFILE
