EDI_BBCC_20160225
tablename	ActFlag	Created	Changed	BbccId	SecId	BbcId	Oldcntrycd	Oldcurencd	EffectiveDate	Newcntrycd	Newcurencd	OldbbgcompId	NewbbgcompId	Oldbbgcomptk	Newbbgcomptk	ReleventId	EventType	Notes
BBCC	I	2012/10/16	2012/10/16	6130	631782	44319	GB	GBP	2012/10/15	GB	GBP	BBG000QB2XW6	BBG000QB2XW6	MERE LN	ERET LN			No further information
BBCC	I	2013/07/17	2013/07/17	9782	60752	89562	US	USD	2013/07/16	US	USD	BBG000C3FF36	BBG000C3FF36	HENOF US	HELKF US			No further information
BBCC	I	2013/07/18	2013/07/18	9816	60752	89562	US	USD	2013/07/17	US	USD	BBG000C3FF36	BBG000C3FF36	HELKF US	HENOF US			No further information
BBCC	I	2015/06/16	2015/06/16	17954	60869	43072	GB	EUR	2015/06/16	GB	EUR	BBG000DG2MB6		BOS3 EO			CLEAN	No further information
BBCC	I	2015/06/16	2015/06/16	18358	82342	43373	GB	EUR	2015/06/16	GB	EUR	BBG000DR22C5		ISPR LI			CLEAN	No further information
BBCC	I	2015/06/16	2015/06/16	18653	60825	46535	GB	EUR	2015/06/16	GB	EUR	BBG000D76V04		STO3 EO			CLEAN	No further information
BBCC	I	2015/06/16	2015/06/16	18688	104534	46742	GB	EUR	2015/06/16	GB	EUR	BBG000R38LH0		TITR LI			CLEAN	No further information
BBCC	I	2015/06/16	2015/06/16	19311	60752	42912	GB	EUR	2015/06/16	GB	EUR	BBG000R38P90		HEN3 LI			CLEAN	No further information
BBCC	I	2015/06/16	2015/06/16	19473	60882	45402	GB	EUR	2015/06/16	GB	EUR	BBG000R38S03		PAH3 LI			CLEAN	No further information
BBCC	I	2015/06/16	2015/06/16	19601	60772	41467	GB	EUR	2015/06/16	GB	EUR	BBG000D8MGB5		DRW3 EO			CLEAN	No further information
BBCC	I	2015/06/16	2015/06/16	20450	82434	43482	GB	EUR	2015/06/16	GB	EUR	BBG000DDNGX9		ITMR EO			CLEAN	No further information
BBCC	I	2015/06/16	2015/06/16	20487	60868	39986	GB	EUR	2015/06/16	GB	EUR	BBG000J1XMQ3		BIO3 EO			CLEAN	No further information
BBCC	I	2015/06/16	2015/06/16	20659	60756	46010	GB	EUR	2015/06/16	GB	EUR	BBG000D1GSQ5		SRT3 EO			CLEAN	No further information
BBCC	I	2015/06/16	2015/06/16	20871	76841	40375	GB	EUR	2015/06/16	GB	EUR	BBG000JRGCK3		BZUR EO			CLEAN	No further information
BBCC	I	2015/06/16	2015/06/16	21628	60960	47336	GB	EUR	2015/06/16	GB	EUR	BBG000G6VK90		50IT LN			CLEAN	No further information
BBCC	I	2015/06/16	2015/06/16	22135	4045922	123508	GB		2015/06/16	GB		BBG0058MG3P0		VLAPEUR EO			CLEAN	No further information
BBCC	I	2015/12/28	2015/12/28	24512	4624889	136100	US		2015/12/28	US	USD	BBG00B59JJG1	BBG00B59JJG1	MLPB US	MLPB US			No further information
EDI_ENDOFFILE
